{
  "project_info": {
    "project_number": "389754554720",
    "firebase_url": "https://ding-dong-f0cc2.firebaseio.com",
    "project_id": "ding-dong-f0cc2",
    "storage_bucket": "ding-dong-f0cc2.appspot.com"
  },
  "client": [
    {
      "client_info": {
        "mobilesdk_app_id": "1:389754554720:android:fd919de883c6f952a97605",
        "android_client_info": {
          "package_name": "com.lighthusky.dingdong"
        }
      },
      "oauth_client": [
        {
          "client_id": "389754554720-rh5h692ius6ai1bansk893ntf4tai7up.apps.googleusercontent.com",
          "client_type": 1,
          "android_info": {
            "package_name": "com.lighthusky.dingdong",
            "certificate_hash": "4c34a98b263990693ec5654ea97772c4e750eee1"
          }
        },
        {
          "client_id": "389754554720-2pe69hnb2gl63skglemo608aupufkope.apps.googleusercontent.com",
          "client_type": 1,
          "android_info": {
            "package_name": "com.lighthusky.dingdong",
            "certificate_hash": "3f8654555aa58d821aecb98122b70db00cb2d974"
          }
        },
        {
          "client_id": "389754554720-12ci196ddcsnsd42i8p2pfpqsr6o6p7a.apps.googleusercontent.com",
          "client_type": 1,
          "android_info": {
            "package_name": "com.lighthusky.dingdong",
            "certificate_hash": "61d1ddde5ff761656861b6c9a450d10750306175"
          }
        },
        {
          "client_id": "389754554720-4414p07m9slig2j79e6rde43c3v9it2s.apps.googleusercontent.com",
          "client_type": 1,
          "android_info": {
            "package_name": "com.lighthusky.dingdong",
            "certificate_hash": "3bc4095f36498d94dddf53e44a2ec62d1ff92010"
          }
        },
        {
          "client_id": "389754554720-onc1o1qhuismtjrbeen6qr78f9h81e1o.apps.googleusercontent.com",
          "client_type": 1,
          "android_info": {
            "package_name": "com.lighthusky.dingdong",
            "certificate_hash": "4a7d9b56cabd095295c4f1293c4547d62bed7095"
          }
        },
        {
          "client_id": "389754554720-d4a6sjtclubp6016spklu2m16q47us8l.apps.googleusercontent.com",
          "client_type": 1,
          "android_info": {
            "package_name": "com.lighthusky.dingdong",
            "certificate_hash": "e13b862d51cc87ab323c80c0c038c0e21fdcfe1e"
          }
        },
        {
          "client_id": "389754554720-cfnb7rgjqucl0if6r2jdcloa5qcs9s8u.apps.googleusercontent.com",
          "client_type": 3
        }
      ],
      "api_key": [
        {
          "current_key": "AIzaSyC510jlZhSuTTFXLDJ5k0qO2e93jkHGeZY"
        }
      ],
      "services": {
        "appinvite_service": {
          "other_platform_oauth_client": [
            {
              "client_id": "389754554720-sggdgjquofl8625khseq0jhu4345bm8o.apps.googleusercontent.com",
              "client_type": 3
            },
            {
              "client_id": "389754554720-9lt82apc5aj98t3llv73vd74196p7dfn.apps.googleusercontent.com",
              "client_type": 2,
              "ios_info": {
                "bundle_id": "com.lighthusky.dingdong"
              }
            }
          ]
        }
      }
    }
  ],
  "configuration_version": "1"
}